%YAML 1.1
%TAG !u! tag:unity3d.com,2011:
--- !u!114 &11400000
MonoBehaviour:
  m_ObjectHideFlags: 0
  m_CorrespondingSourceObject: {fileID: 0}
  m_PrefabInstance: {fileID: 0}
  m_PrefabAsset: {fileID: 0}
  m_GameObject: {fileID: 0}
  m_Enabled: 1
  m_EditorHideFlags: 0
  m_Script: {fileID: 11500000, guid: 1d232bab94ad65342b62938d1a029980, type: 3}
  m_Name: BigHand
  m_EditorClassIdentifier: 
  reloadTime: 2.5
  halfAngleRotatation: 30
  minDmg: 1
  maxDmg: 50
  attackAudioClipsList: []
  movementAudioClipsList: []
  pushForce: 100
  durability: 100
