%YAML 1.1
%TAG !u! tag:unity3d.com,2011:
--- !u!114 &11400000
MonoBehaviour:
  m_ObjectHideFlags: 0
  m_CorrespondingSourceObject: {fileID: 0}
  m_PrefabInstance: {fileID: 0}
  m_PrefabAsset: {fileID: 0}
  m_GameObject: {fileID: 0}
  m_Enabled: 1
  m_EditorHideFlags: 0
  m_Script: {fileID: 11500000, guid: 0dc35eebd99b98b408a09caaebc2074b, type: 3}
  m_Name: Player
  m_EditorClassIdentifier: 
  startEquipmentWeaponsList: []
  maxHP: 100
  speed: 5
  movementAudioClipsList:
  - {fileID: 8300000, guid: 7ceefd05bed50f94ca84153831c1fd48, type: 3}
  - {fileID: 8300000, guid: 44056ac0092afb84f972ae3c5a32886b, type: 3}
  - {fileID: 8300000, guid: a966e06946ec5f844baaffb5eac4ffb8, type: 3}
  - {fileID: 8300000, guid: 01a8b71c61c7dfc4ab655156a2ee10c9, type: 3}
  - {fileID: 8300000, guid: e75dee926f32d9947bdbee604e977f33, type: 3}
  startSprite: {fileID: 21300000, guid: 21bd91754e73f5e42b795b32a65f526f, type: 3}
  deathCharacter: {fileID: 2517087818495762105, guid: 97da45b56eb625f49980482ccf2e89cc,
    type: 3}
