%YAML 1.1
%TAG !u! tag:unity3d.com,2011:
--- !u!1045 &1
EditorBuildSettings:
  m_ObjectHideFlags: 0
  serializedVersion: 2
  m_Scenes:
  - enabled: 1
    path: Assets/Scenes/Game/Credits.unity
    guid: 4ecbb595c6134f64e92ffdc153e54944
  - enabled: 1
    path: Assets/Scenes/Game/Menu.unity
    guid: 92fd1bf703cb8374dbc939ed697c2413
  m_configObjects: {}
